7306395 29427842
22258697 2869134
15394453 9100693
6013772 15184511
9451380 17321082
21594641 14121532
25876794 31736975
4044112 28091103
2380977 32368244
3208958 28739284
18799296 7462178
8361406 2946551
15086999 15184511
12139598 10341182
16502720 23817046
12693061 25064375
9451380 17321082
3488126 11959615
3167578 32368244
19901654 12089529
20280968 32368244
20280968 32368244
20280968 32368244
3297131 18975823
18567322 13365547
17778088 30491418
2286517 28137208
149523 9100693
18997477 32398758
15691491 30405203
27204280 32452111
12684793 9100690
3579073 9100693
120514 9100689
5915522 15184511
1443817 31736975
8361406 2946551
8107028 32368241
27436672 15398570
26592070 497590
9709774 12700454
20934771 30491418
4251695 3828354
3334801 32368244
25733629 30491418
7916416 30491418
27559775 32368244
14251669 10341182
2207312 24982961
8007419 10474106
2207312 24982961
16224014 9100690
18811142 16040127
26592070 497590
22594115 14121532
21556368 9100689
12324598 32368244
6108260 9106407
18262900 32135670
18601746 10341182
17203737 15506599
3391172 15184511
3359173 12321091
11676091 15321102
25733629 30491418
11902159 12765785
31939728 24126625
29708152 14300126
2286517 28137208
31786692 5121533
8322250 26949221
18261041 15398570
7064273 23817046
28592263 9100690
18316320 8892339
69525 13104554
3826466 30801593
7510993 13710655
15842687 3788051
23708011 14466837
938741 17686799
11676091 15321102
6022039 26852339
27819954 18975823
4331094 15398570
105218 30801593
3579073 9100693
23219147 9100693
19776707 30801593
9746733 9100689
23632419 9100689
31292061 29427842
9777352 11097337
10413345 497593
20162165 24982961
24998981 6686701
24998981 6686701
8361406 2946551
3206768 10341182
8322250 26949221
14493227 27614018
6751166 30801593
6751166 30801593
19556086 16823030
2803220 2390251
31515122 22431924
6367947 9100693
19430540 30801593
6952556 9106407
18216257 9100690
6881943 32452111
31851108 30801593
5731700 30405203
17125229 408759
15366984 2946551
511357 18975823
30700022 23530192
25950921 15184511
13072759 18975823
10601729 3892353
9079351 18975823
26148230 15184511
17393481 23817046
2526098 7061828
7483002 18975823
31851108 30801593
7122385 14121532
19788530 73328
21801985 8980585
20439617 9100693
19229120 15491650
21905627 15184511
8902738 29531983
7693813 32368241
4488817 15184511
21556368 9100689
6030615 16184517
16915435 32368241
12677125 30491418
28613258 23644447
26197824 32368244
27215252 30801593
5283354 9100692
32201177 15184511
9195533 10341182
28545833 30405203
14921047 9100692
28428220 497593
28428220 497593
1239842 13166099
7916416 30491418
6084248 9100693
24291352 32368244
2971919 2869134
5039198 32368244
9102237 32368244
29056141 9100693
2337687 22891668
23181041 9100693
29103839 5061834
12889778 17321082
19909806 16184517
4174507 32368244
12103838 27891651
15870098 9100689
26432465 24389111
1502462 2946551
3090812 14661605
14707058 32368244
19828140 9100693
15692457 9100693
22842906 30405203
16588485 31452108
15516421 28726401
29389496 24391301
32207160 7289590
20168018 9100690
22738101 9100693
10339772 5544859
13272902 9100691
21556368 9100689
29434133 3788051
21469474 10341182
624396 15184511
3826466 30801593
7064273 23817046
14452579 9100693
31731188 6686701
11090808 30534043
27784716 73328
25519218 9106407
13791416 32368244
12717203 32368244
10981333 9100693
29823239 9100693
18776271 15398570
17869830 30801593
24623239 13365547
2013817 14121532
16255586 30801593
5890431 9100693
3826466 30801593
12945821 26949222
11328003 18975823
12878239 32368244
8999380 20377297
7517307 32368244
7835457 3073304
8107028 32368241
10745841 9100692
22991283 6697150
6751166 30801593
25498133 30405203
14826235 9100689
22648763 30405203
20222491 13445189
25668575 9810200
4202980 30881002
11754637 9100692
27331613 16922675
4820322 30405203
2108386 30405203
15441935 23817046
9614202 10474106
10954536 13442441
19961119 9810200
13065813 26949221
20177574 18975823
31273059 6210424
10397127 17288254
4450130 13289562
18649269 16922675
4820322 30405203
11754637 9100692
20919324 8403848
22614930 30405203
9968858 32368244
32341447 21294794
2711417 31736975
14470218 30405203
25486318 8904991
25498133 30405203
10536405 18975813
17917877 32368244
30733100 28729609
13247849 32323516
2337687 22891668
13247849 32323516
10586502 14235907
26835090 32452108
17930635 15184511
1514745 2946551
25498133 30405203
23191047 32368244
17217604 13300118
28968950 32368244
21553592 23817046
315203 32368244
22614930 30405203
5805810 28752986
22614930 30405203
5880485 2946551
10211593 6810200
7120279 9100693
19961119 9810200
25021310 9106407
26835090 32452108
17358089 3073304
9357998 15506600
6747590 28351001
10411294 9100689
25498133 30405203
5283354 9100692
5283354 9100692
11566800 10341182
26991758 29427842
19961119 9810200
5880485 2946551
6407746 30405203
25043445 14661605
24639131 23817046
18208936 604244
21792327 15398570
15803512 9100690
24283916 22071675
23472283 32368244
12764645 32368244
23633449 14106384
22664906 32368244
5425504 14106384
9315454 30801593
2837202 9095251
23574449 30491418
10586502 14235907
4471864 30405203
6407746 30405203
17277263 15184511
32364435 10341182
12764645 32368244
25056864 30801593
13866458 2946551
436474 24045154
31398355 15568932
20492707 23288223
25539347 32368244
2013546 15743382
15814005 10341182
27296207 22891673
23620355 32368244
12764645 32368244
4333970 13661605
4759003 15743382
28766401 9100690
6407746 30405203
27348993 15184511
10287244 15398570
1821901 2869134
21218387 2946551
7007510 497593
3687371 2869134
2831506 6686701
26875823 9100693
22614930 30405203
2831506 6686701
26923376 30801593
26574024 30491418
20065835 4293600
8965383 787943
939492 10341182
10944629 32368244
5273450 28739284
30123576 28729609
5838564 4466870
19532825 26321366
29122884 9100689
21792327 15398570
8804157 30801593
21218387 2946551
17905545 408759
16716650 32368244
24606837 15184511
1720690 14445192
7269558 10341182
14245008 16922675
26923376 30801593
14073843 31772643
22191714 27891651
9339946 27323540
3945571 30405203
20925785 30801593
3945571 30405203
9345661 30405203
12878239 32368244
6844792 9106407
15651026 28752986
21792327 15398570
20248064 6686704
22499102 13661605
29379718 9100689
24503546 32368244
13804188 29427842
21323474 14289571
18472226 17321082
5561733 15398570
28120722 32368244
14073843 31772643
27200266 10341182
10586502 14235907
3996426 15398570
24534107 31772643
15878266 73327
26163182 32368244
28079683 18975813
27794075 9100693
13720360 24119478
20706824 13462158
23124625 32368244
31829504 32368241
5024852 32368244
5916193 9100689
27210224 9100689
22319857 9100693
22574908 10341182
5302743 23644447
27127117 6686701
31030587 32368244
31030587 32368244
19378044 26852339
18531693 73328
24889881 30405203
1338897 15184511
32052977 1428788
24889881 30405203
11527755 18975823
12143923 18498853
21218387 2946551
2881802 10341182
13626879 2869134
19540566 9095251
26592070 497590
31478821 10341182
9306462 6686701
1362123 15184511
9421148 10341182
25836862 12089529
19540566 9095251
25692447 32368244
8195558 15398570
26592070 497590
31817391 10960760
21526603 31772643
9066684 3291800
18771399 14661605
28685609 22451482
28948599 3291800
23876033 28351001
22877841 30801593
5967430 26891650
6156268 30801593
26763910 10341182
28002830 5544859
28002830 5544859
561905 7061828
11580650 26321366
28553963 2390251
14040164 5686703
10414273 10341182
8918732 10341182
15692457 14257845
20709219 17710659
6156268 30801593
24441736 15743382
30851855 30801593
7741581 32368244
6156268 30801593
12401185 32368244
27676910 2390251
25181966 2865314
19540566 9095251
4743836 32368244
19680054 20938751
27676910 2390251
1145162 19860994
15499993 28351001
25751556 15398570
4331094 15398570
32019426 6810192
22252579 32368244
17877654 10341182
6943619 10341182
1749309 31772643
31127230 20695010
27241437 32368244
20760225 23852329
27676910 2390251
18075412 10341182
23741594 32368244
19540566 9095251
27676910 2390251
30239680 15184511
26867527 32009848
14079490 24843272
8341440 4913658
2932360 9100691
14952768 32368244
647221 2865314
27241437 32368244
21644611 5544859
16667008 15398570
17267958 32368244
27188460 32368244
27676910 2390251
9516289 6886817
23876033 28351001
5988859 497593
15604418 10341182
29516616 25866075
6407746 30405203
27241437 32368244
16208112 23817046
13520218 32368244
6407746 30405203
20780740 32368244
29081924 30801593
18715975 23817046
27518776 10341182
6407746 30405203
23851902 19602309
21218554 32368244
9650075 10341182
21887872 10341182
31370225 6886817
5189876 30491418
23876033 28351001
12936716 73327
23688955 18975813
13764767 8403848
23964423 32368244
10303088 30405203
10303088 30405203
30852562 10341182
21753349 32368244
22558179 30801593
10310311 17710664
3859881 32368241
6721882 23817046
8574626 15398570
16262719 17314989
15859349 10341182
24534519 32368244
16446071 27729624
17155618 27323541
26129500 3073302
25974424 6886817
8236865 32368244
6144805 18091420
10353 10341182
2699246 8980585
8236865 32368244
561905 7061828
22695167 2073328
12715440 10341182
20957834 9100691
30360575 9100690
31952450 9810200
2235806 15398570
13534203 15398570
3803875 30801593
31259208 15398570
13639228 21294794
31420926 15398570
16677320 5544859
30172553 14289571
29498293 10341182
9705860 17686799
3426152 5281156
23285897 30801593
23750213 16184517
30849362 32368244
3912360 18091420
25159941 15568932
9705860 17686799
28878363 5544859
22847960 8500299
10763980 9100690
8404495 10341182
8718568 23817046
3817737 9100690
13591220 497593
10035347 9100690
28112813 32368244
12914345 9100693
12914345 9100693
6099237 21294794
18123460 14106399
28112813 32368244
11833603 10341182
9478703 3828360
18146663 27118781
14349235 6810192
26598030 32368244
14976640 4869922
27534449 32368244
17668488 25920690
19508815 9100693
18469039 22891673
26587303 29531970
21520874 32368244
26823057 15398570
26823057 15398570
21221830 2946551
12351831 29531970
22999721 25419531
12170914 10341182
6606583 10341182
18156641 32368244
15799959 18975813
14080991 8980571
20982772 15398570
22999721 25419531
20067423 7121544
20982772 15398570
6648483 18975813
12315623 18091420
20181310 6886817
6145267 8403848
12974580 2869134
803919 29427842
13018868 32135670
17737278 9100690
2395509 10341182
4504060 28795042
12765702 29389116
26814518 10341182
21956647 9100689
22827011 32368244
23446466 9100691
1009427 10341182
6306204 2462355
2558560 29687342
6407746 30405203
22045076 10341182
18469039 22891673
5379847 21294794
11281593 7121544
9218921 15398570
15939767 10341182
26823057 15398570
9801575 10341182
20982772 15398570
5365963 5061834
10076844 10341182
16881676 9100690
1988105 10341182
24810257 10341182
24889881 30405203
3091338 13365547
1857886 497593
1122020 10013589
27550377 8980571
17136140 26321366
9152450 73325
7432393 6781040
8404495 10341182
21782098 9100689
9342562 10341182
9865267 27118781
28878363 5544859
22751156 27118781
22060277 5544859
15560027 28351001
6595774 32368244
11179589 14458654
7687613 25920690
30537776 3073305
22060277 5544859
6595774 32368244
22946498 28795043
21261602 26891650
1393287 15398570
16320332 7121544
16320332 7121544
18532583 9100691
16983334 28795043
32209736 15398570
726144 17710664
8675615 10341182
22999721 25419531
6595774 32368244
7505643 31265168
11179589 14458654
18760134 10341182
13237472 13365547
23181609 10341182
1584340 10341182
13549303 12843318
22060277 5544859
11351791 6686701
14330861 20938751
6106183 18898397
18435550 15398570
9339078 3073302
26101272 7121544
1844869 5544859
6407746 30405203
14853248 26852339
30537776 3073305
11297643 10341182
30410497 16184517
26976522 7121544
10348329 8980585
24941523 10341182
11876777 18975823
15351801 14121532
7543658 19602309
1044742 10341182
355093 8403848
29545466 30368132
5759095 29880997
17630088 15184511
1044742 10341182
3108187 28795042
28611178 9100691
28905064 17288254
28350766 8403848
28878363 5544859
18597376 10341182
1326262 8403848
31004240 24316983
31536318 27321366
2852516 15398570
24821786 12121528
2889944 30801593
7562018 28351001
30328095 18091420
6207548 15398570
11727822 9100690
19644380 6697149
19644380 6697149
25346932 10341182
31536318 27321366
31463681 6210424
8441939 408759
12719449 20922679
19644380 6697149
28878363 5544859
13847272 32368244
16022408 3073302
20158091 10341182
24695172 9100691
1111141 32368244
25116385 10341182
17595748 10341182
31536318 27321366
19391856 2144729
25456403 15743382
21261655 18975813
9384936 28795042
27553417 18091420
20800475 16506604
2902228 24843272
18551639 10341182
21289716 16922675
8384378 17288262
25519218 9106407
3606089 408759
25595496 9100690
13313565 9100692
6041945 10341182
24003993 28795042
4309765 14661605
25520503 16184517
30478077 30801593
11863754 10341182
24389305 11321105
26546822 5281156
24695172 9100691
23766554 16184517
3345616 9100691
20917666 3828354
7843232 17710664
12719449 20922679
5045314 9100693
6453913 28351001
14994583 10341182
16373494 497593
22917653 10341182
14664263 3892353
19375549 5686703
5177451 10341182
9534092 10341182
5257493 17288254
7687613 25920690
8848961 10341182
5680513 7061828
5045314 9100693
1111141 32368244
8049718 11803618
24916159 26891650
8962991 10341182
27087322 3073304
18646987 28795043
5680513 7061828
31849211 28795043
23694281 73327
25140368 27091104
11351791 6686701
27619020 10341182
1335406 15398570
23876033 28351001
7145445 30801593
17476873 15398570
1111141 32368244
776533 15398570
10378328 18975813
25744798 9106407
32402164 28351001
2398974 10341182
12633128 17288254
23397736 10341182
8848961 10341182
5680513 7061828
7786506 10341182
10424287 408759
10424287 408759
24327890 15743382
24695172 9100691
23876033 28351001
23876033 28351001
18673607 3694557
390750 10341182
5835336 28752986
24095077 2390251
1465173 12089529
31676014 5544859
7786506 10341182
22836139 10341182
18584071 7121544
11089041 2865314
18257612 8403848
16692420 15398570
16345579 24843272
22081684 15743382
18490319 16184517
5835336 28752986
22515840 15746419
6722557 9106406
12228404 15654897
26994585 10341182
13609603 6810200
5859627 28752986
16628311 21294794
23299855 10341182
19177750 15398570
27749688 18975823
28036540 21294794
9644449 11500306
4534765 9100693
12228404 15654897
19472418 26321366
19793045 14458654
6714180 11772330
26464521 30801593
8790010 15184511
1295511 28795043
12167445 32009848
26994585 10341182
7429080 32368244
8202520 10341182
21287975 32398755
22032720 15654897
29039744 32368244
14318314 26091099
29117583 10341182
13980566 2865315
26844898 20817326
14267418 18975823
26875670 4869923
25025074 30801593
16145499 7121544
23446997 4869923
20554032 408759
15102094 6886817
1741096 15398570
19298439 30801593
19849601 30801593
29178956 23817046
18096259 19661713
22935449 29427842
14917630 28795042
21314195 3877975
14271472 10341182
14739119 15398570
24083871 10341182
15669158 10341182
12228404 15654897
15298781 30405203
18816631 25920690
14976640 4869922
4730411 828346
7130258 5743167
5609745 18898397
25498559 5544859
4309765 14661605
26676098 28795042
1039956 2694554
4309765 14661605
29224559 29345613
21145995 32368244
3757456 10341182
3753143 408759
13879410 10341182
18769624 12351511
26084023 17686799
11032394 15568932
18575798 10341182
13076716 10341182
26298166 30535894
29064184 25172774
18686764 13661608
25716544 28729609
15679348 14121532
596234 9100691
17453082 24843272
535183 8980571
29611105 30801593
20249661 4293600
28285275 25419531
1446614 10341182
12974020 32368244
6347928 10341182
668008 2869134
4309765 14661605
29259734 18091420
5106370 18091420
14254107 15398570
24410048 28351001
20891005 6810200
10408489 30801593
25660587 11803618
4403461 5544859
7786506 10341182
21460101 16184517
27026408 15398570
24410048 28351001
11174755 10474106
24410048 28351001
10408489 30801593
25721685 10341182
4420792 15398570
31240019 28351001
22808453 25920690
27156559 6336377
22325398 9100690
7435201 2390251
26639015 10341182
23414174 30801593
7423979 29345613
24649412 2462355
14125882 10341182
10149916 10341182
11423886 30801593
21662909 10341182
26175075 12843318
7080308 5544859
1519597 10341182
3292933 9100689
15915970 26852339
4587632 10341182
27347457 18975813
9510639 15398570
1833901 29427842
22236488 16040127
1776981 28795042
7482039 29427842
6137721 16184517
1583747 15746419
8980279 7121544
23802254 22233130
25730330 32368244
3809741 6886817
18969633 30491418
13501948 18975823
11709751 25419531
23365824 10341182
17296897 5544859
15945868 73328
32303189 15398570
18405380 30801593
8980279 7121544
29711875 31775712
12833688 27091104
24410048 28351001
17574725 32009848
4601969 28729609
7893647 10341182
15806268 10341182
13791416 32368244
13791416 32368244
6038420 18975823
29338142 28795043
31022318 10341182
25938073 10341182
10303319 30801593
5545202 8403848
23282134 5544859
24639877 2073328
18067196 28795042
29416739 27118781
14391957 10341182
14118270 32009848
4420792 15398570
22962823 7121544
16834124 30801593
28282384 5121533
10931579 29427842
16387477 10341182
21773355 30801593
16710150 2869134
25141788 18975813
6453913 28351001
7407221 5544859
25260719 15184511
17359281 15398570
28680800 15398570
14664263 3892353
14466939 20695010
32375089 10341182
27244403 20938751
13666803 10341182
9626961 7061828
3051671 10341182
5793109 30801593
7677683 29531976
26296274 4828346
979616 32398755
14118270 32009848
22836139 10341182
14024834 32368244
31215062 15398570
28320931 17288262
208889 5544859
30232546 30801593
16082750 8980571
20852642 8403848
31722247 10341182
12534973 27684173
10593063 10341182
15360896 10341182
18580782 30801593
8294391 15568932
29794674 14102485
12811166 18975813
12190490 5121533
29747607 30801593
20852642 8403848
6453913 28351001
27296319 10341182
15511874 10960760
11686857 13166099
13208900 15184511
27359349 29427842
18980433 23644447
13871122 28739284
175841 7121544
30203092 14121532
32108574 15398570
19218256 5061834
28315052 10341182
6388810 32009848
28756591 6810200
3993563 15184511
18224185 28795042
13461366 15746419
20564134 15398570
4309765 14661605
32375089 10341182
7860318 25119476
27296319 10341182
13918128 28739284
28462513 28795042
6097540 27323541
6453913 28351001
20742143 408759
239565 4869923
11066158 25920690
2271184 2953716
2060045 30801593
26197824 32368244
4309765 14661605
11180754 9100689
27630402 32368244
14021895 21294794
7303047 9095251
501124 28795042
25050921 17710664
17556229 31772643
18373096 18975823
16170812 9100689
2143085 14458654
11194652 10341182
8727050 10341182
26306175 29513913
15764558 22891668
18576215 5061834
22049236 13462158
9389409 408759
1410963 15184511
14072791 15073876
20376170 20817326
27831038 32368244
15840779 10341182
17556229 31772643
3546520 30801593
31934703 10341182
31470859 4913658
29503315 30801593
10335830 15184511
16833236 24843272
13367126 28795042
4482412 29687342
16865312 5281156
153207 2576437
10308681 18975823
16037158 15746419
31435791 23852329
17830050 16922675
14728255 10474106
20629924 10341182
5582757 6810200
10842371 12089529
11310683 7121544
3912053 6781040
7472371 10341182
28488492 9100693
27773893 16184517
27773893 16184517
7520732 10341182
9035316 10341182
8954641 18975823
10679979 5544859
271576 14121532
15538899 30801593
17176444 15398570
16044233 28874676
6516407 10341182
20840416 83677
4011743 5544859
4011743 5544859
20352164 25998432
17005272 15398570
11436298 15506599
21518144 14445192
3988776 9100689
16657360 2869134
30858458 32368244
19682250 83677
20852642 8403848
3297226 30801593
19506078 30801593
23780500 30801593
23408991 18498193
25665976 17710661
9414571 3694556
11861711 14289571
20840416 83677
18925368 27777499
28818836 15184511
20833695 7121544
11571459 17314989
10326169 16184517
15791914 30801593
1307524 15491650
27619013 15398570
21357437 11803618
8294391 15568932
12037865 27589150
9414571 3694556
9020376 26852338
246156 23817046
9939360 10341182
21193845 9100691
12278505 9100692
5928701 10341182
2431402 2869134
2288950 10341182
22799341 2865314
19735260 9100689
23822690 15398570
23822690 15398570
17595082 27888153
7419943 30801593
4410156 31772643
7419943 30801593
4037394 4626334
21918950 4293600
28102715 11097337
11385534 10341182
23381260 5544859
885538 14121532
27740972 27684173
27989882 10341182
18767244 8892339
4258389 10341182
11847486 15184511
4669971 27777499
11297643 10341182
22289511 4676898
663254 30535894
16855837 15398570
20903873 73327
9062013 26614024
29876773 13166099
13735213 21294794
19313915 8980584
5925165 10341182
23956421 32368244
30443844 15568932
8192460 5061834
7338194 10341182
9414571 3694556
24068443 9100689
9238975 10341182
14926940 30801593
23313856 9100693
2153857 30801593
18422732 16184517
1560091 26998428
10688297 26852338
5063739 7061828
13111973 14235907
10898124 30729721
24631249 3694557
31592034 15654897
15472908 10341182
11861711 14289571
8910843 28739284
9674877 10341182
3064981 16922675
4859714 15398570
14608560 10341182
19783878 5544859
22507978 12843318
12853037 73328
14466939 20695010
4466425 10341182
19008114 30801593
27643220 10341182
31344318 30801593
20903873 73327
1452277 10341182
29498293 10341182
10968786 15398570
10092925 27118781
26365978 9100689
7129550 408759
15133411 16922675
27941677 15398570
7651052 12843317
27155134 17710664
26053769 15398570
31110742 30801593
31592034 15654897
4812037 9100691
28323798 15398570
12148231 2869134
5891482 9095251
8910843 28739284
4874915 15184511
1897195 10341182
28369276 21640043
31268556 8403848
14885353 15398570
6614297 10341182
31110742 30801593
31348915 73325
28360803 10341182
13369518 16506604
1081447 30801593
3728695 6810200
30084278 408759
1082484 5544859
12593077 73328
24156367 32368244
8910843 14661605
30084278 408759
32400159 30535894
1621720 22726403
23989165 30491418
10988471 14121532
29516616 25866075
18668057 28795043
13818140 20938751
4042662 30801593
30540345 32323516
28369276 21640043
30269136 20640037
26783709 30535894
28105964 5544859
9275055 24982960
32273067 16184517
13200366 32368244
3116784 17661709
7790713 15398570
31168212 10341182
8139881 17288262
13827166 16922675
24786120 24843272
17059493 17710661
27851898 26321366
16551048 28351001
6938736 28795042
9414571 3694556
30660425 5061834
26923570 10341182
2290875 7061828
15153283 10341182
32330926 2865314
12008984 73325
24232155 10341182
6133960 28795042
6423612 15422821
16917342 15654890
30537776 3073305
2481838 10341182
10757740 2869134
15986356 30801593
25472578 21640043
16103894 17314989
31189386 2869134
7085483 30535894
9627229 5544859
8587344 4913658
10046158 27777499
22461058 10341182
22548293 26891650
9414571 3694556
2290875 7061828
28040749 10341182
18081478 24843279
32424676 9100689
31048815 15184511
30383677 19860994
25948163 24843279
18464656 10341182
10050717 24843272
7281608 32398755
1658230 15398570
9088216 10341182
1929690 29880998
31010103 10341182
9861115 19602309
31739922 29427842
31225345 15184511
10397812 15398570
30482374 32398755
28760027 10341182
28695923 2869134
19624301 6886817
22471821 27118781
11365164 30801593
13396728 30752994
26249791 15398570
9674877 10341182
7929931 24843272
121721 24316983
16951975 16823030
9414571 3694556
8023350 28351001
6486378 5544859
19919169 9100689
27643220 10341182
11708187 5544859
25158036 3610770
20996426 2953716
27743614 23817046
24816542 28795042
18697528 25920690
29648085 4869922
1520017 2869134
28644446 30801593
6431402 10341182
30368716 4293600
20018434 804100
11540035 10341182
17304587 8403848
10821151 14235907
18729109 26321366
25532605 15184511
3848177 30801593
82559 27321366
17304587 8403848
22498564 6810200
6735984 32009848
22510876 30535894
31914052 497593
17290255 24843272
11540035 10341182
11107849 17321082
14619265 29427842
23676217 14235907
16428548 18975813
20996426 2953716
13906914 4466870
20727241 12121528
32282619 15184511
29730793 25920690
27042703 26891650
3745371 17710661
18993543 18975813
29730793 25920690
3438599 30801593
6515227 8403848
1018050 10341182
1917754 18975823
13438177 28752988
14502260 6686701
13738298 408759
14706822 9100691
20727241 12121528
20983527 16184517
20983527 16184517
23725295 15398570
31796943 73328
29498293 10341182
14502260 6686701
28545462 30801593
28545462 30801593
28545462 30801593
21402264 9810200
28545462 30801593
4346943 28351001
8519385 10341182
20540396 21294794
14502260 6686701
17395492 20916101
2611402 24316983
1020752 15184511
7361711 10341182
8364319 15398570
24270476 7336375
14502260 6686701
19330981 28795042
16102910 21640043
2614649 12843318
16102910 21640043
14571285 5061834
18416951 10341182
18513265 16184517
6174465 10341182
3400626 27323541
1020752 15184511
15617006 32368244
10327576 32323516
31077845 2576437
29007771 15184511
18513265 16184517
11909871 14121532
11890971 30801593
14855322 30801593
